^C:\USERS\DW\SOURCE\REPOS\HOMEWORK_17\HOMEWORK_17.CPP
C:\USERS\DW\SOURCE\REPOS\HOMEWORK_17\DEBUG\VC142.PDB
C:\USERS\DW\SOURCE\REPOS\HOMEWORK_17\DEBUG\VC142.IDB
C:\USERS\DW\SOURCE\REPOS\HOMEWORK_17\DEBUG\HOMEWORK_17.OBJ
